{
  "question" : {
    "answers":13,
    "authorNickName":"GraceF",
    "_id":"5761307e82ec5d610ae900a9",
    "tags": 42,
    "text": "I have a main product that is selling ok. And I want to add different color variations of the #product. I understand that I need to setup a parent child set up. Does that mean I have to list the different color ones as a whole separate product listing with a separateASIN # for each color?As for the pictures, would it be ok to just have 1 basic photo for the child listing, instead of the full 9 photos like the parent listing?I'm thinking that it would be ok since people will mainly find this product through the parent listing.Do I need a separate FNSKU# for each child listing?And finally, if I add parent child set-up, will it affect my parent #productlisting BSR or anything? I'm ranked pretty well, so don'twant it to affect anything",
    "title":"Adding different colour variation of your product on #Amazon",
    "views": 42,
    "votes": 0,
    "comments": [],
    "answersList": [
      {
        "title": "Test 1",
        "authorNickName": "John",
        "vote": 3,
        "comments": 1,
        "time": "22 mins ago",
        "msg": "The link was already given to you @GraceF for set- up but I will answer some of other questions.You will get another #fnsku, you will need another upc. Doing the steps I explain does not effect rank orreviews. Your existing product becomes a child as well. So you will have a parent and 2 children.You will want many excellent images on both children.",
        "_id":"57612a1282ec5d610ae9005b"
      },
      {
        "title": "Test 2",
        "authorNickName": "Anna",
        "vote": 7,
        "comments": 3,
        "time": "3 hours ago",
        "msg": "Possibly. Depends on what choices your categories gives you. If you can choose that it varies by size and color, or maybe style and color then you can. If you only have a choice of color or a single variation type then no.",
        "_id":"576129fe82ec5d610ae9005a"
      },
      {
        "title": "Test 3",
        "authorNickName": "Linda",
        "vote": 8,
        "comments": 2,
        "time": "7 hours ago",
        "msg": "Some categories/sub-cats do not support #variations. No idea why, just one of those things.The parent is not a sellable product. It just holds the parent-child together.If your reviews are good on the original and your category supports a variation that fits you can do this newimproved product as a variation.",
        "_id":"577111d3a516cdc01b309fc2"
      },
      {
        "title": "Test 3",
        "authorNickName": "Shannon",
        "vote": 23,
        "comments": 6,
        "time": "1 day ago",
        "msg": "You can #upgrade your product - it just will depend on how much you upgrade/change it if you need to create a new variation or a new listing. What did you need warmed about? Don't give up there are always go to bumps in the road with any business, learn from it and move forward.",
        "_id":"577111d3a516cdc01b309fc2"
      }
    ]
  }
}
